calorie-tracker-app/
├── backend/                     # Backend code
│   ├── controllers/             # MVC controllers
│   ├── models/                  # Mongoose models
│   ├── routes/                  # Express routes
│   ├── utils/                   # Utility functions
│   ├── db.js                    # Database connection setup
│   └── app.js                   # Main backend application file
├── frontend/                    # Frontend code
│   ├── css/                     # CSS files
│   ├── js/                      # JavaScript files
│   │   └── axios-setup.js       # Axios setup for REST API communication
│   ├── assets/                  # Static assets like images
│   └── index.html               # Main HTML file
├── test/                        # Test files
│   ├── backend/                 # Backend tests
│   └── frontend/                # Frontend tests
├── node_modules/                # Node.js modules (ignored in version control)
├── package.json                 # Project metadata and dependencies
├── .gitignore                   # Specifies intentionally untracked files to ignore
└── README.md                    # Project overview and setup instructions
